<?xml version="1.0" encoding="utf-8"?>
<!-- Generator: Adobe Illustrator 25.1.0, SVG Export Plug-In . SVG Version: 6.00 Build 0)  -->
<svg version="1.1" id="LOGO" xmlns="http://www.w3.org/2000/svg" xmlns:xlink="http://www.w3.org/1999/xlink" x="0px" y="0px"
	 viewBox="0 0 310 310.9" style="enable-background:new 0 0 310 310.9;" xml:space="preserve">
<style type="text/css">
	.st0{fill:#BACC00;}
	.st1{fill-rule:evenodd;clip-rule:evenodd;fill:#BACC00;}
</style>
<g>
	<path class="st0" d="M148,117.6l-13.3-13.2c-2.3-2.3-6.1-2.3-8.4,0c-2.3,2.3-2.3,6,0,8.3c0,0,0,0,0,0l21.7,21.6V165l-13.3-13.2
		c-2.3-2.3-6.1-2.3-8.4,0c-2.3,2.3-2.3,6,0,8.3c0,0,0,0,0,0l21.7,21.6v25.6h-29.4c-16.7,0-30.3-13.3-30.3-29.6
		c0-62.1,46.4-109.4,59.7-112.3V117.6z"/>
	<path class="st1" d="M174.9,100.2c19.1,0,34.6-15.5,34.6-34.6c0,0,0,0,0,0v-0.1h-34.6V100.2z"/>
	<rect x="161.1" y="65.6" class="st0" width="14.2" height="179.9"/>
	<path class="st1" d="M174.9,159.7c25.9,0,46.9-21,46.9-46.9v-0.1h-46.9V159.7z"/>
</g>
</svg>
