<?xml version="1.0" encoding="utf-8"?>
<!-- Generator: Adobe Illustrator 25.1.0, SVG Export Plug-In . SVG Version: 6.00 Build 0)  -->
<svg version="1.1" id="LOGO" xmlns="http://www.w3.org/2000/svg" xmlns:xlink="http://www.w3.org/1999/xlink" x="0px" y="0px"
	 viewBox="0 0 595.2 310.9" style="enable-background:new 0 0 595.2 310.9;" xml:space="preserve">
<style type="text/css">
	.st0{fill:#FFFFFF;}
	.st1{fill-rule:evenodd;clip-rule:evenodd;fill:#FFFFFF;}
</style>
<g>
	<g>
		<path class="st0" d="M280.2,129c-11.2,0-19.6,8.6-19.6,20.1c0,11.7,8.1,19.9,19.7,19.9c8.9,0,15.4-4.9,17.4-13.1l0.1-0.4l-1.3-0.7
			l-0.2,0.5c-1.8,4.6-6.3,7.6-11.2,7.4c-7.3,0-12-5.8-12.2-14.8h25v-0.5C297.8,135.8,291.2,129,280.2,129 M272.8,145.2
			c0.4-8.4,3.2-13.8,7.3-13.8c5,0,5.8,6.5,5.8,13.8H272.8z"/>
		<path class="st0" d="M187.1,152.5c-4.4,8-8.7,12.6-17.7,12.6h-11V142h7.9c6.1,0,8,0.9,10.4,7.6l0.1,0.4h1.1v-19.7h-1.1l-0.1,0.4
			c-2.4,6.7-4.3,8.2-10.3,8.2h-7.9v-21.8h9.7c8.8,0,12.7,4,16.9,11.3l0.2,0.3h1.1l-2.8-15.4l-0.6,0.3c-1.4,0.5-3,0.7-4.5,0.6h-36.7
			v1l0.3,0.2c3.1,1.8,4,3.7,4,8.8v34.4c0,5.1-0.9,7-4,8.8l-0.3,0.2v1h44l2.6-16h-1.1L187.1,152.5z"/>
		<path class="st0" d="M254.6,159.4v-16.7c0-8.7-4.4-13.8-12-13.8c-5.9,0-10.2,3.2-12.4,9.1c-1.3-5.8-5.4-9.1-11.6-9.1
			c-5.5,0-9.7,2.9-12,8.2v-7.4h-16.2v1l0.3,0.2c3.3,1.8,4,3.1,4,7.8v20.7c0,5-0.4,5.9-3.5,7.7l-0.3,0.2v1h19.7v-1l-0.3-0.2
			c-3.2-1.8-3.6-2.7-3.6-7.7v-12.7c0-7,2.6-11.2,6.9-11.2c3.5,0,5.1,2.2,5.1,7.2v16.7c0,5-0.4,5.9-3.5,7.7l-0.3,0.2v1h19.7v-1
			l-0.3-0.2c-3.2-1.8-3.6-2.7-3.6-7.7v-12.7c0-7,2.6-11.2,6.9-11.2c3.5,0,5.1,2.2,5.1,7.2v16.7c0,5-0.4,5.9-3.5,7.7l-0.3,0.2v1h19.7
			v-1l-0.3-0.2C255,165.3,254.6,164.4,254.6,159.4"/>
		<path class="st0" d="M400.2,129c-11.2,0-19.6,8.6-19.6,20.1c0,11.7,8.1,19.9,19.7,19.9c8.9,0,15.4-4.9,17.4-13.1l0.1-0.4l-1.3-0.7
			l-0.2,0.5c-1.8,4.6-6.3,7.6-11.2,7.4c-7.3,0-12-5.8-12.2-14.8h25v-0.5C417.8,135.8,411.3,129,400.2,129 M392.9,145.2
			c0.4-8.4,3.2-13.8,7.3-13.8c5,0,5.8,6.5,5.8,13.8H392.9z"/>
		<path class="st0" d="M327.9,129c-5.2,0-9.1,3.5-11.6,10.3v-9.5h-16.2v1l0.3,0.2c3.3,1.8,4,3.1,4,7.8v20.7c0,5-0.4,5.9-3.5,7.7
			l-0.3,0.2v1h21.9v-1.1l-0.3-0.1c-4.1-1.6-5.8-3-5.8-7.6v-10.6c0-7.8,3.9-12.4,7.7-12.4c2.5,0,3.9,1.2,3.9,3.5
			c0.1,1.3-0.7,2.6-2,3.1l-0.8,0.3l0.6,0.6c0.9,0.7,1.9,1,3,1c3.7,0,7.4-2.8,7.4-8.1C336.2,132.1,332.8,129,327.9,129"/>
		<path class="st0" d="M461.6,159.4v-16.7c0-8.5-4.8-13.8-12.4-13.8c-5.8,0-10.3,3-12.7,8.5v-7.7h-16.2v1l0.3,0.2
			c3.3,1.8,4,3.1,4,7.8v20.7c0,5-0.4,5.9-3.5,7.7l-0.3,0.2v1h19.7v-1L440,167c-3.2-1.8-3.6-2.7-3.6-7.7v-12.7
			c0-6.9,2.9-11.2,7.5-11.2c5,0,5.7,4.5,5.7,7.2v16.7c0,5-0.4,5.9-3.5,7.7l-0.3,0.2v1h19.7v-1l-0.3-0.2
			C462,165.3,461.6,164.4,461.6,159.4"/>
		<path class="st0" d="M493.5,153.7l-0.1,0.6c-0.7,3.7-2.3,8.1-6.5,8.1c-2.9,0-4.2-2-4.2-6.1v-23.6h11.1l0.6-3h-11.6v-13.2H481
			l-0.1,0.4c-2,7.5-7.2,12.6-14.2,14.1l-0.4,0.1v1.7h4.6l-0.1,23.5c0,4.1,1.1,7.4,3.3,9.6c2.3,2.1,5.3,3.3,8.4,3.1
			c7.3,0,11.8-4.9,12.8-14.2l0.1-0.4L493.5,153.7z"/>
		<path class="st0" d="M374.1,137.8v0.9h0.5c3.3,0,7.2-1.6,7.2-6.2c0-3.5-2.4-5.7-6.4-5.7c-3.8,0-6.1,3.3-7.6,5.7
			c-2.9-2.4-7.1-3.7-12-3.7c-10.2,0-16.9,5.1-16.9,13c0,4.4,2.4,8.4,6.2,10.5c-3.6,1.4-7.3,4.4-7.3,8.9c0,4.3,2.8,6.9,6,8.2
			c-5,1-8,3.5-8,7c0,6.8,9.9,9.2,19.1,9.2c11.7,0,23.5-4.6,23.5-15c0-7.2-5.5-11.4-15.1-11.4h-14.7c-2.7,0-4-0.9-4-2.6
			c0-1.7,1.8-2.7,3-3.2c2.6,0.9,5.4,1.4,8.2,1.3c10.3,0,16.9-5.1,16.9-13c0-3-1.2-5.9-3.4-7.9c0.8-0.8,1.8-1.3,3-1.3
			c1.4-0.2,2.6,0.8,2.8,2.2c0,0.2,0,0.3,0,0.5c0.1,0.9-0.3,1.7-0.9,2.3L374.1,137.8z M360.9,142c0,4.9-0.9,10.6-5.1,10.6
			c-4.1,0-5-5.8-5-10.6c0-4.9,0.9-10.6,5-10.6C360,131.3,360.9,137.1,360.9,142 M343.7,176.3c0-5,4.7-5.8,7.4-5.8h10.9
			c5,0,7.3,1.7,7.3,5.3c0,4.5-5.8,7.5-14.3,7.5C348.1,183.3,343.7,180.5,343.7,176.3"/>
		<path class="st0" d="M94,99.1L86.9,92c-1.3-1.2-3.3-1.2-4.5,0c-1.2,1.2-1.3,3.2,0,4.5c0,0,0,0,0,0L94,108.1v16.5l-7.1-7.1
			c-1.3-1.2-3.3-1.2-4.5,0c-1.2,1.2-1.3,3.2,0,4.5c0,0,0,0,0,0L94,133.6v13.8H78.2c-8.9,0.1-16.2-7-16.3-15.9
			C61.9,98,86.9,72.6,94,71.1V99.1z"/>
		<path class="st1" d="M108.5,89.7c10.3,0,18.6-8.3,18.6-18.6c0,0,0,0,0,0v0h-18.6V89.7z"/>
		<rect x="101" y="71.1" class="st0" width="7.6" height="96.7"/>
		<path class="st1" d="M108.5,121.7c13.9,0,25.2-11.3,25.2-25.2v0h-25.2V121.7z"/>
		<path class="st0" d="M106.8,198.7c4.7,0,6.6,2.6,6.6,5.6s-1.9,5.6-6.6,5.6h-1.6v5.1H101v-16.2H106.8z M106.8,206.7
			c1.3,0,2.4-1.1,2.4-2.4c0-1.3-1.1-2.4-2.4-2.4h-1.6v4.8H106.8z"/>
		<path class="st0" d="M122.7,205.7c-1.9-0.7-3.6,0.5-3.6,2.9v6.3h-3.9v-12.4h3.7l0.3,2.3c0.3-1.5,2.2-2.5,3.6-2.5V205.7z"/>
		<path class="st0" d="M129.9,215.1c-4,0-6-2.7-6-6.4c0-3.7,2-6.4,6-6.4c4.1,0,6,2.7,6,6.4C135.9,212.4,133.9,215.1,129.9,215.1z
			 M129.9,205.1c-1.3,0-2.1,1.3-2.1,3.5c0,2.3,0.7,3.5,2.1,3.5c1.3,0,2.1-1.2,2.1-3.5S131.2,205.1,129.9,205.1z"/>
		<path class="st0" d="M144.9,205.4h-2.6v5.1c0,1,0.3,1.5,0.9,1.6c0.6,0.2,1.2,0.1,1.7-0.1l-0.2,2.4c-0.9,0.4-1.9,0.6-2.8,0.6
			c-2.5,0-3.6-1.5-3.6-3.9v-5.8h-1.3v-2.9h1.3v-2.6l4-0.5v3.2h2.6V205.4z"/>
		<path class="st0" d="M157.9,209.6H150c0.2,1.8,1,2.6,2.2,2.6c0.9,0,1.7-0.7,1.9-1.6l3.7,0.8c-0.8,2.3-3.1,3.8-5.5,3.6
			c-4.1,0-6.2-2.6-6.2-6.4c0-3.8,2.1-6.4,6.1-6.4C156.5,202.3,158.4,205.5,157.9,209.6z M154,207.2c0.2-1-0.5-1.9-1.4-2
			c-0.2,0-0.3,0-0.5,0c-1,0-1.7,0.6-2,2H154z"/>
		<path class="st0" d="M167.4,210.3l3.8,0.6c-0.6,2.5-2.5,4.2-5.7,4.2c-4.1,0-6.1-2.6-6.1-6.4c0-3.7,2-6.4,6.1-6.4
			c3.2,0,5.2,1.7,5.7,4.2l-3.8,0.6c0-1.1-0.8-1.9-1.9-1.9c-1.4,0-2.1,1.3-2.1,3.5c0,2.3,0.7,3.5,2.1,3.5
			C166.5,212.2,167.4,211.4,167.4,210.3C167.4,210.3,167.4,210.3,167.4,210.3z"/>
		<path class="st0" d="M180.4,205.4h-2.6v5.1c0,1,0.3,1.5,0.9,1.6c0.6,0.2,1.2,0.1,1.7-0.1l-0.2,2.4c-0.9,0.4-1.9,0.6-2.8,0.6
			c-2.5,0-3.6-1.5-3.6-3.9v-5.8h-1.3v-2.9h1.3v-2.6l4-0.5v3.2h2.6L180.4,205.4z"/>
		<path class="st0" d="M181.8,199.4c0-1.1,0.9-1.9,2.3-1.9s2.3,0.8,2.3,1.9c0,1.2-0.9,1.9-2.3,1.9S181.8,200.6,181.8,199.4z
			 M182.1,214.9v-12.4h3.9v12.4H182.1z"/>
		<path class="st0" d="M196.3,214.9v-7.2c0-1.6-0.5-2.3-1.7-2.3c-1.1,0-1.9,0.9-2,2.5v7h-4v-12.4h3.7l0.3,1.9c0.6-1.4,2-2.3,3.5-2.1
			c3,0,4.2,1.8,4.2,5.1v7.5L196.3,214.9z"/>
		<path class="st0" d="M214.8,215.3c0,2.7-2.2,3.9-6.5,3.9c-3.7,0-6.2-1-6.2-2.8c0-1.4,1.3-2.1,2.4-2.4c-1.2-0.4-1.9-1.1-1.9-1.9
			c0-0.9,0.8-1.7,2-2.1c-1.3-0.7-2.2-2.1-2.1-3.5c0-2.9,2.2-4.2,5.7-4.2c1,0,2,0.1,2.9,0.4c0.5-0.4,0.9-1,1.1-1.7l2.5,1.2
			c-0.3,0.8-0.7,1.6-1.4,2.1c0.4,0.6,0.6,1.4,0.6,2.1c0,2.9-2.2,4.3-5.7,4.3c-0.7,0-1.3,0-1.9-0.2c-0.2,0.1-0.3,0.3-0.3,0.5
			c0,0.4,0.7,0.9,2.3,0.9C212,212,214.8,212.9,214.8,215.3z M211.3,215.7c0-0.8-1.2-1.2-3.1-1.2c-0.6,0-1.3,0-1.9-0.1
			c-0.5,0.2-0.9,0.6-0.9,1.1c0,0.7,1,1.3,2.9,1.3C210.3,216.9,211.3,216.4,211.3,215.7L211.3,215.7z M206.4,206.5
			c0,1.3,0.7,2.1,1.8,2.1c1.1,0,1.8-0.8,1.8-2.1c0-1.3-0.7-2-1.8-2C207.1,204.5,206.4,205.2,206.4,206.5z"/>
		<path class="st0" d="M229.6,202.5v2.9h-2.6v9.5h-3.9v-9.5h-1.2v-2.9h1.2V201c0-2,1-3.6,3.7-3.6c1,0,1.9,0.2,2.8,0.6v2.3
			c-0.5-0.2-1.1-0.2-1.7-0.1c-0.6,0.1-0.9,0.5-0.9,1.3v1.1L229.6,202.5z"/>
		<path class="st0" d="M236.7,215.1c-4,0-6-2.7-6-6.4c0-3.7,2-6.4,6-6.4c4.1,0,6,2.7,6,6.4C242.7,212.4,240.7,215.1,236.7,215.1z
			 M236.7,205.1c-1.3,0-2.1,1.3-2.1,3.5c0,2.3,0.7,3.5,2.1,3.5c1.3,0,2.1-1.2,2.1-3.5S238,205.1,236.7,205.1z"/>
		<path class="st0" d="M252.3,205.7c-1.9-0.7-3.6,0.5-3.6,2.9v6.3h-3.9v-12.4h3.7l0.3,2.3c0.3-1.5,2.2-2.5,3.6-2.5V205.7z"/>
		<path class="st0" d="M265.4,209.6h-7.9c0.2,1.8,1,2.6,2.2,2.6c0.9,0,1.7-0.7,1.9-1.6l3.7,0.8c-0.8,2.3-3.1,3.8-5.5,3.6
			c-4.1,0-6.2-2.6-6.2-6.4c0-3.8,2.1-6.4,6.1-6.4C264,202.3,265.9,205.5,265.4,209.6z M261.5,207.2c0.2-1-0.5-1.9-1.4-2
			c-0.2,0-0.3,0-0.5,0c-1,0-1.7,0.6-2,2H261.5z"/>
		<path class="st0" d="M274.2,206.5c-0.2-0.9-1-1.5-1.9-1.4c-1,0-1.6,0.5-1.5,1.1c0.1,1,2.5,1,4.5,1.9c1.4,0.4,2.4,1.7,2.5,3.1
			c0,2.4-2.1,3.8-5.5,3.8c-2.7,0-5-1.4-5.5-3.7l3.5-0.6c0.2,0.9,1,1.5,1.9,1.5c1.2,0,1.9-0.4,1.8-1.2c-0.2-0.9-1.9-1-3.8-1.6
			c-1.7-0.5-3.3-1.5-3.3-3.4c0-2.4,2.2-3.8,5.3-3.8c2.8,0,4.7,1.4,5.3,3.6L274.2,206.5z"/>
		<path class="st0" d="M286.9,205.4h-2.6v5.1c0,1,0.3,1.5,0.9,1.6c0.6,0.2,1.2,0.1,1.7-0.1l-0.2,2.4c-0.9,0.4-1.9,0.6-2.8,0.6
			c-2.5,0-3.6-1.5-3.6-3.9v-5.8H279v-2.9h1.3v-2.6l4-0.5v3.2h2.6L286.9,205.4z"/>
		<path class="st0" d="M295.6,206.5c-0.2-0.9-1-1.5-1.9-1.4c-1,0-1.6,0.5-1.5,1.1c0.1,1,2.5,1,4.5,1.9c1.4,0.4,2.4,1.7,2.5,3.1
			c0,2.4-2.1,3.8-5.5,3.8c-2.7,0-5-1.4-5.5-3.7l3.5-0.6c0.2,0.9,1,1.5,1.9,1.5c1.2,0,1.9-0.4,1.8-1.2c-0.2-0.9-1.9-1-3.8-1.6
			c-1.7-0.5-3.3-1.5-3.3-3.4c0-2.4,2.2-3.8,5.3-3.8c2.8,0,4.7,1.4,5.3,3.6L295.6,206.5z"/>
		<path class="st0" d="M304.8,213.8c0,2.9-1.4,4.8-3.5,4.9l-0.2-1.1c1.3-0.1,2.2-1.2,2.2-2.5c-0.2,0-0.5,0.1-0.7,0.1
			c-1-0.1-1.7-0.9-1.7-1.9c0-1,0.7-1.8,1.7-1.8c0.1,0,0.2,0,0.3,0c1.1,0,2,0.9,2,2C304.8,213.6,304.8,213.7,304.8,213.8z"/>
		<path class="st0" d="M324.9,208.7c0,4-1.7,6.4-4.8,6.4c-1.5,0.1-2.9-0.8-3.4-2.2l-0.2,2h-3.8v-17.4h4v6.9c0.6-1.4,2-2.2,3.5-2.1
			C323.2,202.3,324.9,204.7,324.9,208.7z M320.9,208.7c0-2.4-1-3.4-2.2-3.4c-1.1,0-1.9,0.9-2.1,2.3v2.1c0,1.2,0.9,2.2,2.1,2.3
			C319.9,212.1,320.9,211.1,320.9,208.7z"/>
		<path class="st0" d="M338.3,209.6h-7.9c0.2,1.8,1,2.6,2.2,2.6c0.9,0,1.7-0.7,1.9-1.6l3.7,0.8c-0.8,2.3-3.1,3.8-5.5,3.6
			c-4.1,0-6.2-2.6-6.2-6.4c0-3.8,2.1-6.4,6.1-6.4C336.9,202.3,338.8,205.5,338.3,209.6z M334.4,207.2c0.2-1-0.5-1.9-1.4-2
			c-0.2,0-0.3,0-0.5,0c-1,0-1.7,0.6-2,2H334.4z"/>
		<path class="st0" d="M347.4,202.5h4.1l-3.2,11.4c-1.3,4.6-4,6.4-8.2,5.4l-0.2-2.7c1,0.3,2.1,0.3,3.1-0.1l-3.8-14h4.1l2,10.4
			L347.4,202.5z"/>
		<path class="st0" d="M358.2,215.1c-4,0-6-2.7-6-6.4c0-3.7,2-6.4,6-6.4c4.1,0,6,2.7,6,6.4C364.2,212.4,362.2,215.1,358.2,215.1z
			 M358.2,205.1c-1.3,0-2.1,1.3-2.1,3.5c0,2.3,0.7,3.5,2.1,3.5c1.3,0,2.1-1.2,2.1-3.5S359.5,205.1,358.2,205.1z"/>
		<path class="st0" d="M374,214.9v-7.2c0-1.6-0.5-2.3-1.7-2.3c-1.1,0-1.9,0.9-2,2.5v7h-4v-12.4h3.7l0.3,1.9c0.6-1.4,2-2.3,3.5-2.1
			c3,0,4.2,1.8,4.2,5.1v7.5L374,214.9z"/>
		<path class="st0" d="M388.3,204.4v-6.9h4v17.4h-3.8l-0.2-2c-0.5,1.4-1.9,2.4-3.4,2.2c-3.2,0-4.8-2.4-4.8-6.4c0-4,1.7-6.4,4.8-6.4
			C386.3,202.2,387.7,203,388.3,204.4z M388.2,209.7v-2.1c-0.1-1.4-0.9-2.3-2.1-2.3c-1.2,0-2.2,1-2.2,3.4c0,2.4,1,3.4,2.2,3.4
			C387.3,211.9,388.3,210.9,388.2,209.7z"/>
		<path class="st0" d="M408.3,214.9v-7.2c0-1.6-0.5-2.3-1.7-2.3c-1.1,0-1.9,0.9-2,2.5v7h-4v-12.4h3.7l0.3,1.9c0.6-1.4,2-2.3,3.5-2.1
			c3,0,4.2,1.8,4.2,5.1v7.5L408.3,214.9z"/>
		<path class="st0" d="M426.2,209.6h-7.9c0.2,1.8,1,2.6,2.2,2.6c0.9,0,1.7-0.7,1.9-1.6l3.7,0.8c-0.8,2.3-3.1,3.8-5.5,3.6
			c-4.1,0-6.2-2.6-6.2-6.4c0-3.8,2.1-6.4,6.1-6.4C424.8,202.3,426.7,205.5,426.2,209.6z M422.3,207.2c0.2-1-0.5-1.9-1.4-2
			c-0.2,0-0.3,0-0.5,0c-1,0-1.7,0.6-2,2H422.3z"/>
		<path class="st0" d="M435.3,205.4h-2.6v5.1c0,1,0.3,1.5,0.9,1.6c0.6,0.2,1.2,0.1,1.7-0.1l-0.2,2.4c-0.9,0.4-1.9,0.6-2.8,0.6
			c-2.5,0-3.6-1.5-3.6-3.9v-5.8h-1.3v-2.9h1.3v-2.6l4-0.5v3.2h2.6L435.3,205.4z"/>
		<path class="st0" d="M452.9,202.5v3l-5.3,6.5h5.3v2.9h-10.1v-3l5.3-6.5h-5.3v-2.9L452.9,202.5z"/>
		<path class="st0" d="M466.4,209.6h-7.9c0.2,1.8,1,2.6,2.2,2.6c0.9,0,1.7-0.7,1.9-1.6l3.7,0.8c-0.8,2.3-3.1,3.8-5.5,3.6
			c-4.1,0-6.2-2.6-6.2-6.4c0-3.8,2.1-6.4,6.1-6.4C464.9,202.3,466.9,205.5,466.4,209.6z M462.5,207.2c0.2-1-0.5-1.9-1.4-2
			c-0.2,0-0.3,0-0.5,0c-1,0-1.7,0.6-2,2H462.5z"/>
		<path class="st0" d="M476,205.7c-1.9-0.7-3.6,0.5-3.6,2.9v6.3h-3.9v-12.4h3.7l0.3,2.3c0.3-1.5,2.2-2.5,3.6-2.5V205.7z"/>
		<path class="st0" d="M483.1,215.1c-4,0-6-2.7-6-6.4c0-3.7,2-6.4,6-6.4c4.1,0,6,2.7,6,6.4C489.1,212.4,487.1,215.1,483.1,215.1z
			 M483.1,205.1c-1.3,0-2.1,1.3-2.1,3.5c0,2.3,0.7,3.5,2.1,3.5c1.3,0,2.1-1.2,2.1-3.5S484.4,205.1,483.1,205.1z"/>
		<path class="st0" d="M490.3,213.4c-0.1-1.1,0.7-2.1,1.8-2.2s2.1,0.7,2.2,1.8c0.1,1.1-0.7,2.1-1.8,2.2c-0.1,0-0.1,0-0.2,0
			c-1,0.1-1.9-0.6-2-1.6C490.3,213.5,490.3,213.4,490.3,213.4z"/>
	</g>
</g>
</svg>
