<?xml version="1.0" encoding="utf-8"?>
<!-- Generator: Adobe Illustrator 25.1.0, SVG Export Plug-In . SVG Version: 6.00 Build 0)  -->
<svg version="1.1" id="Layer_1" xmlns="http://www.w3.org/2000/svg" xmlns:xlink="http://www.w3.org/1999/xlink" x="0px" y="0px"
	 viewBox="0 0 118 120" style="enable-background:new 0 0 118 120;" xml:space="preserve">
<style type="text/css">
	.st0{fill:#BACC00;}
	.st1{fill:#FFFFFF;}
</style>
<ellipse class="st0" cx="59" cy="60.3" rx="58.8" ry="58.8"/>
<g>
	<path class="st1" d="M27,90.1h59.6c3.3,0,6-2.7,6-6c0-3.3-2.7-6-6-6h-6c-2.3,0-4.1-1.8-4.1-4.1c0-2.3,1.8-4.1,4.1-4.1h11.2V68H80.6
		c-3.3,0-6,2.7-6,6c0,3.3,2.7,6,6,6h6c2.1,0,3.8,1.6,4.1,3.7h-6.9v1.9h6.7c-0.6,1.5-2.1,2.6-3.8,2.6H27V90.1z"/>
	<path class="st1" d="M32.4,59.6c0.3,0,0.6,0,0.8-0.1V82H27V84h38.8c3.3,0,6-2.7,6-6c0-3.3-2.7-6-6-6h-16c-1.9,0-3.5-1.3-4-3.1h5.3
		v-1.9h-5.3c0.4-1.8,2-3.1,4-3.1h42v-1.9h-3.1v-13c2.2-1.2,3.8-3.5,3.8-6.2c0-2.7-1.6-5.2-4-6.3c0.1-0.5,0.1-0.9,0.1-1.4
		c0-3.9-3.2-7-7-7s-7,3.2-7,7c0,0.5,0,0.9,0.1,1.4c-2.4,1.2-4,3.6-4,6.3c0,3.9,3.2,7,7,7c0.3,0,0.6,0,0.8-0.1v12.3h-5.4v-1.7
		c1.9-0.4,3.4-2.1,3.4-4.1c0-1.5-0.8-2.9-2.1-3.6c0-0.2,0-0.3,0-0.5c0-2.3-1.9-4.2-4.2-4.2c-2.3,0-4.2,1.9-4.2,4.2
		c0,0.2,0,0.3,0,0.5c-1.3,0.7-2.1,2.1-2.1,3.6c0,2,1.5,3.7,3.4,4.1v1.7h-5.3V49.5c0.3,0,0.6,0.1,0.8,0.1c3.9,0,7-3.2,7-7
		c0-2.7-1.6-5.2-4-6.3c0.1-0.5,0.1-0.9,0.1-1.4c0-3.9-3.2-7-7-7c-3.9,0-7,3.2-7,7c0,0.5,0,0.9,0.1,1.4c-2.4,1.2-4,3.6-4,6.3
		c0,2.2,1.1,4.2,2.7,5.5v13.7h-1.3c-3.3,0-6,2.7-6,6s2.7,6,6,6h16c2.3,0,4.1,1.8,4.1,4.1c0,2.3-1.8,4.1-4.1,4.1H47v-7.3h-1.9V82
		h-0.6v-9.4h-1.9V82h-3.3V59.5c0.3,0,0.6,0.1,0.8,0.1c0.9,0,1.7-0.2,2.4-0.4v4.3h1.9v-5.4c1.6-1.3,2.7-3.3,2.7-5.5
		c0-2.7-1.6-5.2-4-6.3c0.1-0.5,0.1-0.9,0.1-1.4c0-3.9-3.2-7-7-7s-7,3.2-7,7c0,0.5,0,0.9,0.1,1.4c-2.4,1.2-4,3.6-4,6.3
		C25.3,56.5,28.5,59.6,32.4,59.6z M86.8,61.8h-2.2V49.5c0.3,0,0.6,0.1,0.8,0.1c0.5,0,0.9,0,1.3-0.1V61.8z M72.7,42.6
		c0-2.2,1.4-4.2,3.5-4.8l0.9-0.3l-0.3-0.9c-0.2-0.5-0.3-1.1-0.3-1.6c0-2.8,2.3-5.1,5.1-5.1s5.1,2.3,5.1,5.1c0,0.5-0.1,1.1-0.3,1.6
		l-0.3,0.9l0.9,0.3c2.1,0.7,3.5,2.6,3.5,4.8c0,2.8-2.3,5.1-5.1,5.1c-1.2,0-2.3-0.4-3.2-1.2L81.6,46L81,46.5
		c-0.9,0.7-2.1,1.2-3.2,1.2C75,47.7,72.7,45.4,72.7,42.6z M80.5,49c0.4-0.2,0.7-0.3,1.1-0.6c0.3,0.2,0.7,0.4,1.1,0.6v12.8h-2.2V49z
		 M66.1,56c0-1,0.6-1.8,1.5-2.1l0.9-0.3l-0.3-0.9c-0.1-0.2-0.1-0.5-0.1-0.7c0-1.2,1-2.2,2.2-2.2c1.2,0,2.2,1,2.2,2.2
		c0,0.2,0,0.5-0.1,0.7l-0.3,0.9l0.9,0.3c0.9,0.3,1.5,1.2,1.5,2.1c0,1.2-1,2.2-2.2,2.2c-0.5,0-1-0.2-1.4-0.5l-0.6-0.5l-0.6,0.5
		c-0.4,0.3-0.9,0.5-1.4,0.5C67.2,58.3,66.1,57.3,66.1,56z M69.5,60c0.3-0.1,0.6-0.2,0.9-0.4c0.3,0.2,0.6,0.3,0.9,0.4v1.8h-1.8V60z
		 M60.4,61.8h-2.2V49c0.4-0.2,0.7-0.3,1.1-0.6c0.3,0.2,0.7,0.4,1.1,0.6V61.8z M50.4,42.6c0-2.2,1.4-4.2,3.5-4.8l0.9-0.3l-0.3-0.9
		c-0.2-0.5-0.3-1.1-0.3-1.6c0-2.8,2.3-5.1,5.1-5.1c2.8,0,5.1,2.3,5.1,5.1c0,0.5-0.1,1.1-0.3,1.6l-0.3,0.9l0.9,0.3
		c2.1,0.7,3.5,2.6,3.5,4.8c0,2.8-2.3,5.1-5.1,5.1c-1.2,0-2.3-0.4-3.2-1.2L59.3,46l-0.6,0.5c-0.9,0.7-2.1,1.2-3.2,1.2
		C52.6,47.7,50.4,45.4,50.4,42.6z M53.1,49.2c0.8,0.3,1.6,0.4,2.4,0.4c0.3,0,0.6,0,0.8-0.1v12.3h-3.2V49.2z M37.3,82h-2.2V59
		c0.4-0.2,0.7-0.3,1.1-0.6c0.3,0.2,0.7,0.4,1.1,0.6V82z M30.8,47.7l0.9-0.3l-0.3-0.9c-0.2-0.5-0.3-1.1-0.3-1.6
		c0-2.8,2.3-5.1,5.1-5.1s5.1,2.3,5.1,5.1c0,0.5-0.1,1.1-0.3,1.6l-0.3,0.9l0.9,0.3c2.1,0.7,3.5,2.6,3.5,4.8c0,2.8-2.3,5.1-5.1,5.1
		c-1.2,0-2.3-0.4-3.2-1.2L36.2,56l-0.6,0.5c-0.9,0.7-2.1,1.2-3.2,1.2c-2.8,0-5.1-2.3-5.1-5.1C27.3,50.4,28.7,48.4,30.8,47.7z"/>
	<path class="st1" d="M42.5,39.1v1.7h1.9v-2.1c0.1,0,0.2-0.1,0.3-0.2c0.1,0.1,0.2,0.1,0.3,0.2v8.3H47v-7.9c2.2-0.1,4-1.9,4-4.2
		c0-1.5-0.8-2.9-2.1-3.6c0-0.2,0-0.3,0-0.5c0-2.3-1.9-4.2-4.2-4.2c-2.3,0-4.2,1.9-4.2,4.2c0,0.2,0,0.3,0,0.5
		c-1.3,0.7-2.1,2.1-2.1,3.6C38.5,37.2,40.3,39,42.5,39.1z M42,32.9l0.9-0.3l-0.3-0.9c-0.1-0.2-0.1-0.5-0.1-0.7c0-1.2,1-2.2,2.2-2.2
		c1.2,0,2.2,1,2.2,2.2c0,0.2,0,0.5-0.1,0.7l-0.3,0.9l0.9,0.3C48.4,33.2,49,34,49,35c0,1.2-1,2.2-2.2,2.2c-0.5,0-1-0.2-1.4-0.5
		l-0.6-0.5l-0.6,0.5c-0.4,0.3-0.9,0.5-1.4,0.5c-1.2,0-2.2-1-2.2-2.2C40.5,34,41.1,33.2,42,32.9z"/>
	<rect x="45.1" y="58.5" class="st1" width="1.9" height="3.1"/>
	<rect x="52.1" y="66.9" class="st1" width="3.8" height="1.9"/>
	<rect x="76.3" y="83.7" class="st1" width="6.4" height="1.9"/>
	<rect x="27" y="91.9" class="st1" width="38.5" height="1.9"/>
	<rect x="67.4" y="91.9" class="st1" width="5.6" height="1.9"/>
	<rect x="74.8" y="91.9" class="st1" width="17" height="1.9"/>
</g>
</svg>
